module ymirpg

go 1.20

require (
	ariga.io/atlas v0.10.2-0.20230427182402-87a07dfb83bf
	entgo.io/ent v0.12.3
	github.com/DATA-DOG/go-sqlmock v1.5.0
	github.com/go-chi/chi/v5 v5.0.10
	github.com/go-resty/resty/v2 v2.7.0
	github.com/kubuskotak/asgard v0.0.0-20230723024742-e73d9a16f51d
	github.com/lib/pq v1.10.9
	github.com/redis/go-redis/v9 v9.1.0
	github.com/rs/zerolog v1.30.0
	github.com/spf13/cobra v1.7.0
	github.com/stretchr/testify v1.8.4
	go.mongodb.org/mongo-driver v1.12.1
	go.opentelemetry.io/otel v1.17.0
	go.opentelemetry.io/otel/trace v1.17.0
)

require (
	github.com/BurntSushi/toml v1.1.0 // indirect
	github.com/agext/levenshtein v1.2.1 // indirect
	github.com/apparentlymart/go-textseg/v13 v13.0.0 // indirect
	github.com/cenkalti/backoff/v4 v4.2.1 // indirect
	github.com/cespare/xxhash/v2 v2.2.0 // indirect
	github.com/creack/pty v1.1.18 // indirect
	github.com/davecgh/go-spew v1.1.1 // indirect
	github.com/dgryski/go-rendezvous v0.0.0-20200823014737-9f7001d12a5f // indirect
	github.com/dustin/go-humanize v1.0.1 // indirect
	github.com/felixge/httpsnoop v1.0.3 // indirect
	github.com/fsnotify/fsnotify v1.6.0 // indirect
	github.com/gabriel-vasile/mimetype v1.4.2 // indirect
	github.com/go-logr/logr v1.2.4 // indirect
	github.com/go-logr/stdr v1.2.2 // indirect
	github.com/go-openapi/inflect v0.19.0 // indirect
	github.com/go-playground/locales v0.14.1 // indirect
	github.com/go-playground/universal-translator v0.18.1 // indirect
	github.com/go-playground/validator/v10 v10.14.1 // indirect
	github.com/golang/protobuf v1.5.3 // indirect
	github.com/golang/snappy v0.0.1 // indirect
	github.com/google/go-cmp v0.5.9 // indirect
	github.com/google/uuid v1.3.0 // indirect
	github.com/gorilla/schema v1.2.0 // indirect
	github.com/grpc-ecosystem/grpc-gateway/v2 v2.7.0 // indirect
	github.com/hashicorp/hcl/v2 v2.13.0 // indirect
	github.com/ilyakaznacheev/cleanenv v1.4.2 // indirect
	github.com/inconshreveable/mousetrap v1.1.0 // indirect
	github.com/joho/godotenv v1.4.0 // indirect
	github.com/kballard/go-shellquote v0.0.0-20180428030007-95032a82bc51 // indirect
	github.com/klauspost/compress v1.13.6 // indirect
	github.com/leodido/go-urn v1.2.4 // indirect
	github.com/mattn/go-colorable v0.1.13 // indirect
	github.com/mattn/go-isatty v0.0.16 // indirect
	github.com/mitchellh/go-wordwrap v0.0.0-20150314170334-ad45545899c7 // indirect
	github.com/montanaflynn/stats v0.0.0-20171201202039-1bf9dbcd8cbe // indirect
	github.com/oklog/ulid/v2 v2.1.0 // indirect
	github.com/pmezard/go-difflib v1.0.0 // indirect
	github.com/remyoudompheng/bigfft v0.0.0-20230129092748-24d4a6f8daec // indirect
	github.com/spf13/pflag v1.0.5 // indirect
	github.com/xdg-go/pbkdf2 v1.0.0 // indirect
	github.com/xdg-go/scram v1.1.2 // indirect
	github.com/xdg-go/stringprep v1.0.4 // indirect
	github.com/youmark/pkcs8 v0.0.0-20181117223130-1be2e3e5546d // indirect
	github.com/zclconf/go-cty v1.8.0 // indirect
	go.opentelemetry.io/contrib/instrumentation/google.golang.org/grpc/otelgrpc v0.42.0 // indirect
	go.opentelemetry.io/otel/exporters/otlp/internal/retry v1.16.0 // indirect
	go.opentelemetry.io/otel/exporters/otlp/otlpmetric v0.39.0 // indirect
	go.opentelemetry.io/otel/exporters/otlp/otlpmetric/otlpmetricgrpc v0.39.0 // indirect
	go.opentelemetry.io/otel/exporters/otlp/otlptrace v1.16.0 // indirect
	go.opentelemetry.io/otel/exporters/otlp/otlptrace/otlptracegrpc v1.16.0 // indirect
	go.opentelemetry.io/otel/exporters/stdout/stdoutmetric v0.39.0 // indirect
	go.opentelemetry.io/otel/exporters/stdout/stdouttrace v1.16.0 // indirect
	go.opentelemetry.io/otel/metric v1.17.0 // indirect
	go.opentelemetry.io/otel/sdk v1.16.0 // indirect
	go.opentelemetry.io/otel/sdk/metric v0.39.0 // indirect
	go.opentelemetry.io/proto/otlp v0.19.0 // indirect
	golang.org/x/crypto v0.7.0 // indirect
	golang.org/x/mod v0.10.0 // indirect
	golang.org/x/net v0.10.0 // indirect
	golang.org/x/sync v0.1.0 // indirect
	golang.org/x/sys v0.8.0 // indirect
	golang.org/x/text v0.9.0 // indirect
	golang.org/x/tools v0.8.1-0.20230428195545-5283a0178901 // indirect
	google.golang.org/genproto v0.0.0-20230410155749-daa745c078e1 // indirect
	google.golang.org/grpc v1.56.1 // indirect
	google.golang.org/protobuf v1.30.0 // indirect
	gopkg.in/yaml.v3 v3.0.1 // indirect
	lukechampine.com/uint128 v1.2.0 // indirect
	modernc.org/cc/v3 v3.40.0 // indirect
	modernc.org/ccgo/v3 v3.16.13 // indirect
	modernc.org/libc v1.22.5 // indirect
	modernc.org/mathutil v1.5.0 // indirect
	modernc.org/memory v1.5.0 // indirect
	modernc.org/opt v0.1.3 // indirect
	modernc.org/sqlite v1.23.1 // indirect
	modernc.org/strutil v1.1.3 // indirect
	modernc.org/token v1.0.1 // indirect
	olympos.io/encoding/edn v0.0.0-20201019073823-d3554ca0b0a3 // indirect
)
